Exploratory Analyses for Missing Data in Meta-Analyses - Vignette
…
The figure shows a larger number of missing cases from effects with outpatient treatments.

Third, effect size estimates and their estimation error variances (or standard errors \(\sigma_i\)) are two relevant variables in most meta-analysis. Density plots are appropriate since we are working with two continuous variables. To facilitate this visualization, we can use the shadow function to keep track of missing values and then create a data frame with the same set of columns, but with the column names added a suffix_NA.

#create shadow dataframe
as_shadow(data)

## # A tibble: 328 x 24
##    EffectSize_NA StandardError_NA Timing_of_Follo Design_NA
##    <fct>         <fct>            <fct>            <fct>    
##  1 !NA           !NA              !NA              !NA      
##  2 !NA           !NA              !NA              !NA      
##  3 !NA           !NA              !NA              !NA      
##  4 !NA           !NA              !NA              !NA      
##  5 !NA           !NA              !NA              !NA      
##  6 !NA           !NA              !NA              !NA      
##  7 !NA           !NA              !NA              !NA      
##  8 !NA           !NA              !NA              !NA      
##  9 !NA           !NA              !NA              !NA      
## 10 !NA           !NA              !NA              !NA      
## #  with 318 more rows, and 20 more variables:
## #   Group1_TreatmentCategory_NA <fct>, Group1_TreatmentLocation_NA <fct>,
## #   Group1_HrsPerWeek_NA <fct>, Group1_TreatmentDays_NA <fct>,
## #   Group1_NumSession_NA <fct>, Group1_MeanAge_NA <fct>,
## #   Group1_PctWhite_NA <fct>, Group1_PctBlack_NA <fct>,
## #   Group1_PctHisp_NA <fct>, Group1_PctMale_NA <fct>,
## #   Group2_TreatmentCategory_NA <fct>, Group2_TreatmentLocation_NA <fct>,
## #   Group2_HrsPerWeek_NA <fct>, Group2_TreatmentDays_NA <fct>,
## #   Group2_NumSession_NA <fct>, Group2_MeanAge_NA <fct>,
…
## [1] 88.35112

#Percentage missing at least one covariate
miss_percentage<- table(rowSums(is.na(data[,3:24])))
1- (miss_percentage[1]/length(data$StandardError))

##         0 
## 0.7378049

We then look at percentage missing by variable and effect size case. Finally, using the miss_ma_var_summary wrapper function, we calculate precision-weighted percentages, which may be more informative in describing the extent of missingness in a meta-analysis.

#Percentage missing by variable
miss_var_summary(data)

## # A tibble: 24 x 3
##    variable                 n_miss pct_miss
##    <chr>                     <int>    <dbl>
##  1 Group2_HrsPerWeek           152     46.3
##  2 Group2_TreatmentDays        117     35.7
##  3 Group2_NumSession           111     33.8
##  4 Group2_TreatmentLocation    109     33.2
##  5 Group1_HrsPerWeek            79     24.1
##  6 Group2_PctBlack              75     22.9
##  7 Group1_PctBlack              71     21.6
##  8 Group1_PctHisp               56     17.1
##  9 Group2_PctHisp               51     15.5
## 10 Group1_NumSession            35     10.7
## #  with 14 more rows

#Percentage missing by Effect Size case
miss_case_summary(data)

## # A tibble: 328 x 3
##     case n_miss pct_miss
##    <int>  <int>    <dbl>
##  1    15     15     62.5
##  2    16     15     62.5
##  3   199     10     41.7
##  4   178      9     37.5
##  5   266      9     37.5
##  6   267      9     37.5
##  7   268      9     37.5
##  8   269      9     37.5
##  9   270      9     37.5
## 10   271      9     37.5
## #  with 318 more rows

#Use wrapper function for weighted percents
mis_ma_var_summary(data, "StandardError", truncate = FALSE)

## # A tibble: 24 x 4
##    Variable                 n_miss pct_miss wtpct_miss
##    <chr>                     <dbl>    <dbl>      <dbl>
##  1 Group2_HrsPerWeek           152     46.3      45.2 
##  2 Group2_TreatmentDays        117     35.7      32.6 
##  3 Group2_NumSession           111     33.8      30.2 
##  4 Group2_TreatmentLocation    109     33.2      30.0 
##  5 Group1_HrsPerWeek            79     24.1      36.8 
##  6 Group2_PctBlack              75     22.9      17.5 
##  7 Group1_PctBlack              71     21.6      16.1 
##  8 Group1_PctHisp               56     17.1      12.7 
##  9 Group2_PctHisp               51     15.5      12.4 
## 10 Group1_NumSession            35     10.7       6.93
## #  with 14 more rows
…
